Crosspoint listing for C:\Users\tmcgrath\Documents\MyProjects\western-midstream\Open Area\IESS - WMS 29032 v2_0.SMW

Note:  Crosspoint symbols with EquipID or ControlID set to 0d are not routeable.

Equipment Crosspoint Routing.                                                                       EquipID
===========================================================================================================
S-2.1.4.1.7.1                                                                                       2101
S-2.1.4.1.8.1                                                                                       2102
S-2.1.1.8.1                                                                                         6001

Control Crosspoint Routing.                                                                         ControlID
=============================================================================================================
S-2.1.4.1.6                                                                                         2100
S-2.1.1.5                                                                                           6000

